{
  "_class": "group",
  "do_objectID": "CF9CB4CE-24CF-4ADB-9D24-AF2B28346ECC",
  "exportOptions": {
    "_class": "exportOptions",
    "exportFormats": [
    ],
    "includedLayerIds": [
    ],
    "layerOptions": 0,
    "shouldTrim": false
  },
  "frame": {
    "_class": "rect",
    "constrainProportions": false,
    "height": 1642,
    "width": 97,
    "x": 1206,
    "y": 120
  },
  "hasClickThrough": false,
  "isFlippedHorizontal": false,
  "isFlippedVertical": false,
  "isLocked": false,
  "isVisible": true,
  "layerListExpandedType": 0,
  "layers": [
    {
      "class": "shapeGroup",
      "id": "853A337E-8011-4541-80C9-7C9A8374F5C7"
    },
    {
      "class": "shapeGroup",
      "id": "CE4B9455-9235-478D-A9F7-EBAE50008013"
    },
    {
      "class": "shapeGroup",
      "id": "51D38003-AE6B-4DE5-A956-95A926E3EF76"
    },
    {
      "class": "shapeGroup",
      "id": "3E0206A4-BB94-4A7A-A6F6-27E06C541A55"
    },
    {
      "class": "group",
      "id": "45CF2D5F-E651-4F21-BEDA-FDD324B57F0E"
    }
  ],
  "name": "milestone",
  "nameIsFixed": true,
  "resizingConstraint": 63,
  "resizingType": 0,
  "rotation": 0,
  "shouldBreakMaskChain": false,
  "style": {
    "_class": "style",
    "endDecorationType": 0,
    "miterLimit": 10,
    "startDecorationType": 0
  }
}