{
  "_class": "group",
  "do_objectID": "50207D5E-9F89-43A3-AB72-BC6DF10CFAF4",
  "exportOptions": {
    "_class": "exportOptions",
    "exportFormats": [
    ],
    "includedLayerIds": [
    ],
    "layerOptions": 0,
    "shouldTrim": false
  },
  "frame": {
    "_class": "rect",
    "constrainProportions": false,
    "height": 28,
    "width": 96,
    "x": 0.5,
    "y": 0
  },
  "hasClickThrough": false,
  "isFlippedHorizontal": false,
  "isFlippedVertical": false,
  "isLocked": false,
  "isVisible": true,
  "layerListExpandedType": 0,
  "layers": [
    {
      "class": "shapeGroup",
      "id": "4AB73787-238F-4C1A-9B27-496B41116EAE"
    },
    {
      "class": "shapeGroup",
      "id": "A4101932-8749-42DD-AE7F-3D60547CA8E8"
    },
    {
      "class": "text",
      "id": "8B703571-5C18-4F5B-9AF7-4B59BD87D455"
    }
  ],
  "name": "global-components/tooltips/top",
  "nameIsFixed": false,
  "resizingConstraint": 63,
  "resizingType": 0,
  "rotation": 0,
  "shouldBreakMaskChain": false,
  "style": {
    "_class": "style",
    "endDecorationType": 0,
    "miterLimit": 10,
    "startDecorationType": 0
  }
}