{
  "_class": "group",
  "do_objectID": "EDAE769F-2FAF-4FAD-8E9D-B086D68818D7",
  "exportOptions": {
    "_class": "exportOptions",
    "exportFormats": [
    ],
    "includedLayerIds": [
    ],
    "layerOptions": 0,
    "shouldTrim": false
  },
  "frame": {
    "_class": "rect",
    "constrainProportions": false,
    "height": 24,
    "width": 78,
    "x": 787.5999999999999,
    "y": 8
  },
  "hasClickThrough": false,
  "isFlippedHorizontal": false,
  "isFlippedVertical": false,
  "isLocked": false,
  "isVisible": true,
  "layerListExpandedType": 0,
  "layers": [
    {
      "class": "shapeGroup",
      "id": "9C49832F-71B2-4169-83D9-F9F68DA25FE4"
    },
    {
      "class": "group",
      "id": "FD70F4CF-BFC5-49AA-96D8-E03FA135B971"
    },
    {
      "class": "text",
      "id": "DC8410A4-E0E0-4584-ABE7-F0C7DCFAA2C9"
    }
  ],
  "name": "global-components/labels/issuable-label/default",
  "nameIsFixed": false,
  "resizingConstraint": 63,
  "resizingType": 0,
  "rotation": 0,
  "shouldBreakMaskChain": false,
  "style": {
    "_class": "style",
    "endDecorationType": 0,
    "miterLimit": 10,
    "startDecorationType": 0
  }
}