{
  "_class": "shapePath",
  "booleanOperation": -1,
  "do_objectID": "4F0DA1AB-4B08-488C-ADD8-4BE24AA85FA3",
  "edited": true,
  "exportOptions": {
    "_class": "exportOptions",
    "exportFormats": [
    ],
    "includedLayerIds": [
    ],
    "layerOptions": 0,
    "shouldTrim": false
  },
  "frame": {
    "_class": "rect",
    "constrainProportions": false,
    "height": 2,
    "width": 14,
    "x": 1,
    "y": 0
  },
  "isFlippedHorizontal": false,
  "isFlippedVertical": false,
  "isLocked": false,
  "isVisible": true,
  "layerListExpandedType": 0,
  "name": "Path",
  "nameIsFixed": false,
  "path": {
    "_class": "path",
    "isClosed": true,
    "pointRadiusBehaviour": 1,
    "points": [
      {
        "_class": "curvePoint",
        "cornerRadius": 0,
        "curveFrom": "{0.071428571428571425, 0}",
        "curveMode": 4,
        "curveTo": "{0.031979660726371879, 5.072653133236333e-17}",
        "hasCurveFrom": false,
        "hasCurveTo": true,
        "point": "{0.071428571428571425, 0}"
      },
      {
        "_class": "curvePoint",
        "cornerRadius": 0,
        "curveFrom": "{0.96802033927362807, -5.072653133236333e-17}",
        "curveMode": 4,
        "curveTo": "{0.9285714285714286, 0}",
        "hasCurveFrom": true,
        "hasCurveTo": false,
        "point": "{0.9285714285714286, 0}"
      },
      {
        "_class": "curvePoint",
        "cornerRadius": 0,
        "curveFrom": "{1, 0.77614237491539662}",
        "curveMode": 2,
        "curveTo": "{1, 0.22385762508460322}",
        "hasCurveFrom": true,
        "hasCurveTo": true,
        "point": "{1, 0.49999999999999989}"
      },
      {
        "_class": "curvePoint",
        "cornerRadius": 0,
        "curveFrom": "{0.9285714285714286, 1}",
        "curveMode": 4,
        "curveTo": "{0.96802033927362807, 1}",
        "hasCurveFrom": false,
        "hasCurveTo": true,
        "point": "{0.9285714285714286, 1}"
      },
      {
        "_class": "curvePoint",
        "cornerRadius": 0,
        "curveFrom": "{0.031979660726371914, 1}",
        "curveMode": 4,
        "curveTo": "{0.071428571428571425, 1}",
        "hasCurveFrom": true,
        "hasCurveTo": false,
        "point": "{0.071428571428571425, 1}"
      },
      {
        "_class": "curvePoint",
        "cornerRadius": 0,
        "curveFrom": "{-7.9301644616082606e-18, 0.22385762508460344}",
        "curveMode": 2,
        "curveTo": "{0, 0.77614237491539684}",
        "hasCurveFrom": true,
        "hasCurveTo": true,
        "point": "{0, 0.50000000000000011}"
      }
    ]
  },
  "resizingConstraint": 63,
  "resizingType": 0,
  "rotation": 0,
  "shouldBreakMaskChain": false
}