<?xml version="1.0" encoding="UTF-8"?>
<svg width="16px" height="16px" viewBox="0 0 16 16" version="1.1" xmlns="http://www.w3.org/2000/svg" xmlns:xlink="http://www.w3.org/1999/xlink">
    <!-- Generator: Sketch 64 (93537) - https://sketch.com -->
    <title>icn/package</title>
    <desc>Created with Sketch.</desc>
    <g id="icn/package" stroke="none" stroke-width="1" fill="none" fill-rule="evenodd">
        <path d="M6.41423,1 C5.8838,1 5.37509,1.210713 5,1.585786 L1.296111,5.28969 C1.113256,5.4709 1,5.72223 1,6 L1,13 C1,14.1046 1.895431,15 3,15 L13,15 C14.1046,15 15,14.1046 15,13 L15,6 C15,5.72386 14.8881,5.47386 14.7071,5.2929 L11,1.585786 C10.62494,1.210714 10.11623,1 9.5858,1 L6.41423,1 Z M11.5858,5 L9.5858,3 L9,3 L9,5 L11.5858,5 Z M7,3 L6.41423,3 L4.41423,5 L7,5 L7,3 Z M3,7 L13,7 L13,13 L3,13 L3,7 Z" id="Package" fill="#000000"></path>
    </g>
</svg>